{
    "chrom_Y_front_block": "on",            //
    "orientation": "portrait",              // ориентация формата
    "lamination_type_front_block": "no",    //
    "chrom_M_front_block": "on",            //
    "pages_block": "2",                     // количество полос в блоке
    "lamination_surface_front_block": "no", //
    "chromaticity_front_block": "4",        //
    "chrom_K_front_block": "on",            //
    "varnishing_type_front_block": "no",    //
    "chrom_M_back_block": "on",             //
    "format_height": "50",                  // высота изделия
    "product": "singlepage_18",             //
    "chrom_K_back_block": "on",             //
    "print_block": "2",                     //
    "density_block": "300",                 // плотность материала блока
    "varnishing_type_back_block": "no",     //
    "chrom_Y_back_block": "on",             //
    "chromaticity_back_block": "4",         //
    "lamination_type_back_block": "no",     //
    "material_block": "carton_2",           // материал блока
    "product_slug": "visiting_card",        // слаг продукта
    "circulation": "100",                   // тираж
    "lamination_surface_back_block": "no",  //
    "material_type_block": "glossy",        // покрытие
    "format_width": "90",                   // ширина изделия
    "printing_type_block": "auto",          //
    "chrom_C_front_block": "on",            //
    "chrom_C_back_block": "on"              //
}

